
{
  "photos": {
    "page": 1,
    "pages": 5198,
    "perpage": 25,
    "total": 129937,
    "photo": [
      {
        "id": "52708705026",
        "owner": "30610429@N05",
        "secret": "f9cd369137",
        "server": "65535",
        "farm": 66,
        "title": "PMG_Genevieve showing DDD photograph housing on tour_DSC_2863",
        "ispublic": 1,
        "isfriend": 0,
        "isfamily": 0
      },
      {
        "id": "52707779517",
        "owner": "146966403@N07",
        "secret": "d3d73205b8",
        "server": "65535",
        "farm": 66,
        "title": "#13",
        "ispublic": 1,
        "isfriend": 0,
        "isfamily": 0
      },
      {
        "id": "52708199198",
        "owner": "145627200@N07",
        "secret": "a0c4712774",
        "server": "65535",
        "farm": 66,
        "title": "1874-05-12 - het nieuws van den dag - de kleine courant - verkoop herberg Kogerpolder",
        "ispublic": 1,
        "isfriend": 0,
        "isfamily": 0
      },
      {
        "id": "52707987333",
        "owner": "153615298@N02",
        "secret": "d389c35071",
        "server": "65535",
        "farm": 66,
        "title": "ddd",
        "ispublic": 1,
        "isfriend": 0,
        "isfamily": 0
      },
      {
        "id": "52706884823",
        "owner": "47676341@N00",
        "secret": "4b1227a42e",
        "server": "65535",
        "farm": 66,
        "title": "nr 26",
        "ispublic": 1,
        "isfriend": 0,
        "isfamily": 0
      },
      {
        "id": "52704765732",
        "owner": "32698450@N06",
        "secret": "6e0edec418",
        "server": "65535",
        "farm": 66,
        "title": "TDD Thursday Door Day / DDD Donderdag Deuren Dag / Donnerstag Türen Tag",
        "ispublic": 1,
        "isfriend": 0,
        "isfamily": 0
      },
      {
        "id": "52705619972",
        "owner": "101206942@N08",
        "secret": "9b2677f5a5",
        "server": "65535",
        "farm": 66,
        "title": "DDD_0806",
        "ispublic": 1,
        "isfriend": 0,
        "isfamily": 0
      },
      {
        "id": "52706144731",
        "owner": "101206942@N08",
        "secret": "4641eb4b91",
        "server": "65535",
        "farm": 66,
        "title": "DDD_0742",
        "ispublic": 1,
        "isfriend": 0,
        "isfamily": 0
      },
      {
        "id": "52705619987",
        "owner": "101206942@N08",
        "secret": "88ee61154a",
        "server": "65535",
        "farm": 66,
        "title": "DDD_0787",
        "ispublic": 1,
        "isfriend": 0,
        "isfamily": 0
      },
      {
        "id": "52706395124",
        "owner": "101206942@N08",
        "secret": "d146126cd5",
        "server": "65535",
        "farm": 66,
        "title": "DDD_0894",
        "ispublic": 1,
        "isfriend": 0,
        "isfamily": 0
      },
      {
        "id": "52706395104",
        "owner": "101206942@N08",
        "secret": "33088a08d4",
        "server": "65535",
        "farm": 66,
        "title": "DDD_0971",
        "ispublic": 1,
        "isfriend": 0,
        "isfamily": 0
      },
      {
        "id": "52705619922",
        "owner": "101206942@N08",
        "secret": "12c85be43e",
        "server": "65535",
        "farm": 66,
        "title": "DDD_1148",
        "ispublic": 1,
        "isfriend": 0,
        "isfamily": 0
      },
      {
        "id": "52706395079",
        "owner": "101206942@N08",
        "secret": "d46b206512",
        "server": "65535",
        "farm": 66,
        "title": "DDD_1027",
        "ispublic": 1,
        "isfriend": 0,
        "isfamily": 0
      },
      {
        "id": "52706144671",
        "owner": "101206942@N08",
        "secret": "99e0b406ea",
        "server": "65535",
        "farm": 66,
        "title": "DDD_1072",
        "ispublic": 1,
        "isfriend": 0,
        "isfamily": 0
      },
      {
        "id": "52706144646",
        "owner": "101206942@N08",
        "secret": "5d1dc5c473",
        "server": "65535",
        "farm": 66,
        "title": "DDD_1183",
        "ispublic": 1,
        "isfriend": 0,
        "isfamily": 0
      },
      {
        "id": "52706144626",
        "owner": "101206942@N08",
        "secret": "678a27ef9e",
        "server": "65535",
        "farm": 66,
        "title": "DDD_1217",
        "ispublic": 1,
        "isfriend": 0,
        "isfamily": 0
      },
      {
        "id": "52706556430",
        "owner": "101206942@N08",
        "secret": "6f9e84f685",
        "server": "65535",
        "farm": 66,
        "title": "DDD_1201",
        "ispublic": 1,
        "isfriend": 0,
        "isfamily": 0
      },
      {
        "id": "52705619882",
        "owner": "101206942@N08",
        "secret": "9826581d63",
        "server": "65535",
        "farm": 66,
        "title": "DDD_1230 (2)",
        "ispublic": 1,
        "isfriend": 0,
        "isfamily": 0
      },
      {
        "id": "52706556400",
        "owner": "101206942@N08",
        "secret": "b8368d81cf",
        "server": "65535",
        "farm": 66,
        "title": "DDD_1245",
        "ispublic": 1,
        "isfriend": 0,
        "isfamily": 0
      },
      {
        "id": "52706556385",
        "owner": "101206942@N08",
        "secret": "565e532f13",
        "server": "65535",
        "farm": 66,
        "title": "DDD_1267",
        "ispublic": 1,
        "isfriend": 0,
        "isfamily": 0
      },
      {
        "id": "52706633828",
        "owner": "101206942@N08",
        "secret": "31ee7a58b1",
        "server": "65535",
        "farm": 66,
        "title": "DDD_1276",
        "ispublic": 1,
        "isfriend": 0,
        "isfamily": 0
      },
      {
        "id": "52706633813",
        "owner": "101206942@N08",
        "secret": "81c8d59631",
        "server": "65535",
        "farm": 66,
        "title": "DDD_1325",
        "ispublic": 1,
        "isfriend": 0,
        "isfamily": 0
      },
      {
        "id": "52706556355",
        "owner": "101206942@N08",
        "secret": "84ccc7c149",
        "server": "65535",
        "farm": 66,
        "title": "DDD_1464",
        "ispublic": 1,
        "isfriend": 0,
        "isfamily": 0
      },
      {
        "id": "52706633798",
        "owner": "101206942@N08",
        "secret": "43af7a71af",
        "server": "65535",
        "farm": 66,
        "title": "DDD_1421",
        "ispublic": 1,
        "isfriend": 0,
        "isfamily": 0
      },
      {
        "id": "52706633803",
        "owner": "101206942@N08",
        "secret": "eac352dc8b",
        "server": "65535",
        "farm": 66,
        "title": "DDD_1385",
        "ispublic": 1,
        "isfriend": 0,
        "isfamily": 0
      }
    ]
  },
  "stat": "ok"
}
